﻿Lesson Plan 2.3 - Time Tracker,,,,
Time,Number,Activity,Duration,Priority
12:46 PM,1,Instructor Do: Welcome Students and Pep Talk,0:15,
12:47 PM,1,Instructor Do: Welcome Students and Pep Talk,0:15,
6:45 PM,2,Students Do: Stars Counter,0:15,
7:00 PM,3,Instructor Do: Review Star Counter,0:05,
7:05 PM,4,Instructor Do: VBA Formatting,0:05,
7:10 PM,5,Students Do: VBA Grade Book,0:15,
7:25 PM,6,Instructor Do: Review Grade Book,0:05,
7:30 PM,7,Partners Do: Checkerboard,0:15,
7:45 PM,8,Instructor Do: Review Checkerboard,0:05,
7:50 PM,9,Instructor Do: Looking to the Next Cell,0:05,
7:56 PM,10,Students Do: Card Checker,0:20,
7:57 PM,10,Students Do: Card Checker,0:20,
7:58 PM,10,Students Do: Card Checker,0:20,
8:15 PM,11,Instructor Do: Review Card Checker,0:10,
8:25 PM,12,BREAK,0:40,
9:05 PM,13,Instructor Do: Wells Fargo Setup,0:05,
9:10 PM,14,Groups Do: Wells Fargo - Part I,0:30,
9:40 PM,15,Instructor Do: Review Wells Fargo - Part I,0:10,
9:50 PM,16,Groups Do: Wells Fargo - Part II,0:28,
10:18 PM,17,Instructor Do: Review Wells Fargo - Part II,0:10,
10:28 PM,18,Instructor Do: Video Guide and Close Class,0:02,
12:44 PM,18,Instructor Do: Video Guide and Close Class,0:02,
12:45 PM,18,Instructor Do: Video Guide and Close Class,0:02,
12:43 PM,,END,,